ANOVA_in_RSTUDIO
…
The following objects are masked from 'package:stats':

    filter, lag

The following objects are masked from 'package:base':

    intersect, setdiff, setequal, union

datum <- read_csv("C:/School/23SPDAY/FieldMethodsandTech/Practice Data/linear regression/anova/Class Activity 9.csv",
                             show_col_types = FALSE)
names(datum)[names(datum) == "Land use"] <- "land_use"
list(datum)

[[1]]
# A tibble: 44 × 2
   land_use    Nitrogen
   <chr>          <dbl>
 1 Agriculture    0.986
 2 Agriculture    1.03 
 3 Agriculture    1.10 
 4 Agriculture    0.921
 5 Agriculture    0.976
 6 Agriculture    0.976
 7 Agriculture    1.03 
 8 Agriculture    0.951
 9 Agriculture    1.13 
10 Agriculture    0.974
# … with 34 more rows
…
